\relax 
\@writefile{toc}{\contentsline {section}{\numberline {1}Section 1}{1}{}\protected@file@percent }
\@writefile{toc}{\contentsline {section}{\numberline {2}Section 2}{1}{}\protected@file@percent }
\@writefile{toc}{\contentsline {section}{\numberline {3}Section 3}{1}{}\protected@file@percent }
\@writefile{toc}{\contentsline {section}{\numberline {4}Section 4}{1}{}\protected@file@percent }
\@writefile{toc}{\contentsline {section}{\numberline {5}Section 5}{1}{}\protected@file@percent }
\@writefile{toc}{\contentsline {section}{\numberline {6}Section 6}{1}{}\protected@file@percent }
\gdef \@abspage@last{1}
