\relax 
\@writefile{toc}{\contentsline {section}{\numberline {I}Introduction}{1}{}\protected@file@percent }
\@writefile{toc}{\contentsline {section}{\numberline {II}Parts and Materials}{1}{}\protected@file@percent }
\@writefile{toc}{\contentsline {section}{\numberline {III}Results}{1}{}\protected@file@percent }
\@writefile{toc}{\contentsline {subsection}{\numberline {\mbox  {III-A}}Lab 1}{1}{}\protected@file@percent }
\@writefile{toc}{\contentsline {subsection}{\numberline {\mbox  {III-B}}Lab 2}{1}{}\protected@file@percent }
\@writefile{toc}{\contentsline {subsection}{\numberline {\mbox  {III-C}}Lab 3}{1}{}\protected@file@percent }
\@writefile{toc}{\contentsline {subsection}{\numberline {\mbox  {III-D}}Lab 4}{1}{}\protected@file@percent }
\@writefile{toc}{\contentsline {subsection}{\numberline {\mbox  {III-E}}Lab 5}{2}{}\protected@file@percent }
\@writefile{toc}{\contentsline {section}{\numberline {IV}Discussion and Summary}{2}{}\protected@file@percent }
\@writefile{toc}{\contentsline {section}{Appendix\nobreakspace  A: Equations and Calculations}{2}{}\protected@file@percent }
\@writefile{toc}{\contentsline {subsection}{\numberline {\mbox  {A-A}}Equations}{2}{}\protected@file@percent }
\newlabel{equation:timeConstant}{{1}{2}}
\newlabel{calculation:motorBlock}{{2}{2}}
\@writefile{toc}{\contentsline {section}{Appendix\nobreakspace  B: Tables}{2}{}\protected@file@percent }
\newlabel{table:vars}{{B}{2}}
\@writefile{lot}{\contentsline {table}{\numberline {I}{\ignorespaces Values for variables in Figure\nobreakspace  {}7\hbox {}}}{2}{}\protected@file@percent }
\@writefile{toc}{\contentsline {section}{Appendix\nobreakspace  C: Images}{2}{}\protected@file@percent }
\@writefile{lof}{\contentsline {figure}{\numberline {1}{\ignorespaces The completed physical system.}}{2}{}\protected@file@percent }
\newlabel{fig:finishedBuild}{{1}{2}}
\@writefile{lof}{\contentsline {figure}{\numberline {2}{\ignorespaces Motor response to a steady 2.5V input}}{3}{}\protected@file@percent }
\newlabel{fig:ramp}{{2}{3}}
\@writefile{lof}{\contentsline {figure}{\numberline {3}{\ignorespaces Comparison of open-loop, closed-loop, and feed-forward systems.}}{3}{}\protected@file@percent }
\newlabel{fig:loopFF}{{3}{3}}
\@writefile{lof}{\contentsline {figure}{\numberline {4}{\ignorespaces Trapezoidal reference signal input and output with proportional control.}}{3}{}\protected@file@percent }
\newlabel{fig:decouple}{{4}{3}}
\@writefile{lof}{\contentsline {figure}{\numberline {5}{\ignorespaces Trapezoidal reference signal with PI control.}}{3}{}\protected@file@percent }
\newlabel{fig:PI}{{5}{3}}
\@writefile{lof}{\contentsline {figure}{\numberline {6}{\ignorespaces Static position response curve for the motor.}}{3}{}\protected@file@percent }
\newlabel{fig:pos}{{6}{3}}
\@writefile{lof}{\contentsline {figure}{\numberline {7}{\ignorespaces General block diagram for a Ball-On-Beam system}}{3}{}\protected@file@percent }
\newlabel{fig:block}{{7}{3}}
\gdef \@abspage@last{3}
